<?xml version="1.0" encoding="utf-8"?>
<!-- Generator: Adobe Illustrator 16.0.0, SVG Export Plug-In . SVG Version: 6.00 Build 0)  -->
<!DOCTYPE svg PUBLIC "-//W3C//DTD SVG 1.1//EN" "http://www.w3.org/Graphics/SVG/1.1/DTD/svg11.dtd">
<svg version="1.1" id="Layer_1" xmlns="http://www.w3.org/2000/svg" xmlns:xlink="http://www.w3.org/1999/xlink" x="0px" y="0px"
	 width="100px" height="100px" viewBox="0 0 100 100" enable-background="new 0 0 100 100" xml:space="preserve">
<path fill="#FFFFFF" d="M17.501,58.904v37.467h66.314V58.904L50.657,25.488L17.501,58.904z M50.657,2.803L30.725,22.891V12.634
	H20.326v20.74L0.658,53.194l7.501,7.561l9.341-9.412l33.156-33.417l33.158,33.417l9.342,9.412l7.501-7.561L50.657,2.803z"/>
</svg>
