<?xml version="1.0" encoding="utf-8"?>
<!-- Generator: Adobe Illustrator 16.0.0, SVG Export Plug-In . SVG Version: 6.00 Build 0)  -->
<!DOCTYPE svg PUBLIC "-//W3C//DTD SVG 1.1//EN" "http://www.w3.org/Graphics/SVG/1.1/DTD/svg11.dtd">
<svg version="1.1" id="Layer_1" xmlns="http://www.w3.org/2000/svg" xmlns:xlink="http://www.w3.org/1999/xlink" x="0px" y="0px"
	 width="100px" height="100px" viewBox="0 0 100 100" enable-background="new 0 0 100 100" xml:space="preserve">
<g>
	<path fill="none" d="M1061.482,351.769v-31.05c0-3.705-3.129-6.719-6.975-6.719s-6.975,3.014-6.975,6.719v31.05
		c-4.916,2.482-8.023,7.368-8.023,12.787c0,7.966,6.727,14.444,14.998,14.444c8.271,0,14.999-6.479,14.999-14.444
		C1069.507,359.137,1066.398,354.251,1061.482,351.769z M1054.508,375.148c-6.064,0-10.998-4.753-10.998-10.593
		c0-4.295,2.665-8.136,6.791-9.786l1.232-0.492v-33.559c0-1.58,1.334-2.867,2.975-2.867s2.976,1.287,2.976,2.867v33.559l1.233,0.492
		c4.125,1.65,6.79,5.491,6.79,9.786C1065.507,370.396,1060.573,375.148,1054.508,375.148z M-870.771-272.371v-1.4
		c0-0.156-0.128-0.301-0.285-0.301h-1.709c-0.157,0-0.285,0.146-0.285,0.301v1.4c0.28-0.033,0.85-0.053,1.14-0.053
		S-871.052-272.404-870.771-272.371z M-871.341-266.052v-2.065c0-0.156-0.128-0.284-0.285-0.284h-0.57
		c-0.157,0-0.285,0.128-0.285,0.284v2.065c-0.339,0.197-0.569,0.558-0.569,0.977s0.23,0.78,0.569,0.978v0.505
		c0,0.156,0.128,0.295,0.285,0.295h0.57c0.157,0,0.285-0.139,0.285-0.295v-0.505c0.339-0.197,0.57-0.559,0.57-0.978
		S-871.002-265.855-871.341-266.052z M-866.093-271.499c-0.111-0.109-0.292-0.109-0.403,0l-0.844,0.839
		c0.223,0.174,0.438,0.361,0.643,0.564c0.205,0.204,0.393,0.418,0.567,0.638l0.844-0.839c0.111-0.11,0.111-0.291,0-0.401
		L-866.093-271.499z M-871.911-271.313c-3.457,0-6.268,2.799-6.268,6.238s2.812,6.238,6.268,6.238s6.268-2.799,6.268-6.238
		S-868.455-271.313-871.911-271.313z M-871.911-260.539c-2.514,0-4.559-2.035-4.559-4.537s2.045-4.537,4.559-4.537
		c2.513,0,4.559,2.035,4.559,4.537S-869.398-260.539-871.911-260.539z"/>
</g>
<path fill="#FFFFFF" d="M27.851,35.645c-0.536,0.45-0.938,1.053-1.123,1.744l-3.596,15.819c-0.055,0.156-0.055,0.314-0.082,0.477
	c-0.159,2.004,1.342,3.723,3.382,3.881c1.902,0.158,3.514-1.267,3.913-2.984l3.006-13.574l5.686-4.519l-8.691,38.035L19.888,91.818
	c-0.324,0.611-0.696,1.479-0.751,2.324c-0.243,2.984,2.038,5.602,5.066,5.84c2.147,0.154,4.022-0.926,5.152-2.641l11.235-18.674
	c0.241-0.502,1.02-1.717,1.102-2.301l2.734-12.307l11.692,12.652l3.7,18.986c0.592,2.248,2.469,4.096,4.959,4.283
	c3.032,0.234,5.688-1.98,5.929-4.963c0.029-0.4-0.052-0.666-0.024-1.115l-3.916-20.283c-0.108-0.605-0.35-1.188-0.645-1.717
	L51.695,55.133l3.673-15.979l3.084,5.997c0.214,0.397,0.538,0.77,0.91,1.06L71.567,54.5c0.59,0.266,1.071,0.477,1.662,0.529
	c2.04,0.158,3.811-1.321,3.97-3.328c0.081-1.241-0.483-2.431-1.448-3.141l-11.182-7.583l-8.207-16.029
	c-1.369-2.086-3.675-3.777-6.492-4.016c-2.12-0.161-4.076,0.583-5.686,1.691L27.851,35.645z M52.681,16.006
	c4.48,0.345,8.396-2.96,8.743-7.343c0.35-4.438-3.001-8.267-7.481-8.639c-4.453-0.343-8.366,2.962-8.743,7.37
	C44.852,11.802,48.204,15.659,52.681,16.006z"/>
</svg>
